{
  "months": [
    "January",
    "February",
    "March",
    "April",
    "May",
    "June",
    "July",
    "August",
    "September",
    "October",
    "November",
    "December"
  ],
  "shiftTypes": [
    {
      "title": "DO"
    },
    {
      "title": "FW",
      "start": "00:00",
      "end": "00:00"
    },
    {
      "title": "AB",
      "start": "00:00",
      "end": "00:00"
    },
    {
      "title": "EV"
    },
    {
      "title": "XC"
    },
    {
      "title": "V",
      "start": "09:00",
      "end": "17:30"
    },
    {
      "title": "AC",
      "start": "14:00",
      "end": "22:00"
    },
    {
      "title": "M1C",
      "start": "07:00",
      "end": "15:30"
    },
    {
      "title": "M1B",
      "start": "07:00",
      "end": "15:30"
    },
    {
      "title": "M3B",
      "start": "09:00",
      "end": "17:30"
    },
    {
      "title": "M3C",
      "start": "09:00",
      "end": "17:30"
    },
    {
      "title": "MPG",
      "start": "08:30",
      "end": "17:00"
    },
    {
      "title": "MS2",
      "start": "08:30",
      "end": "17:00"
    },
    {
      "title": "NB",
      "start": "21:45",
      "end": "07:15"
    }
  ]
}
